{
  "$schema": "https://docs.renovatebot.com/renovate-schema.json",
  "extends": [
    "github>platform-engineering-org/.github"
  ],
  "regexManagers": [
    {
      "fileMatch": [
        "^.gitlab-ci.yml$"
      ],
      "matchStrings": [
        "https://gitlab\\.com/renovate-bot/renovate-runner/-/raw/(?<currentValue>.*?)/templates/renovate\\.gitlab-ci\\.yml"
      ],
      "depNameTemplate": "renovate-bot/renovate-runner",
      "registryUrlTemplate": "https://gitlab.com",
      "datasourceTemplate": "gitlab-releases"
    }
  ]
}
